<svg version="1.0" xmlns="http://www.w3.org/2000/svg" xmlns:xlink="http://www.w3.org/1999/xlink" x="0px" y="0px"
	 width="100%" height="100%" viewBox="0 0 100 100" enable-background="new 0 0 100 100" xml:space="preserve">
	<circle display="inline" class="table" stroke="#000000" stroke-miterlimit="10" cx="50" cy="50" r="34.5"/>
	<path display="inline" class="seat" stroke="#000000" stroke-miterlimit="10" d="M62,15.5c0,0-3.625-2.125-12-2.125
		c-9.125,0-12,2.125-12,2.125v-13h24V15.5z"/>
	<path display="inline" class="seat" stroke="#000000" stroke-miterlimit="10" d="M84.375,63c0,0,2.125-3.625,2.125-12
		c0-9.125-2.125-12-2.125-12h13v24H84.375z"/>
	<path display="inline" class="seat" stroke="#000000" stroke-miterlimit="10" d="M38,84.411c0,0,3.625,2.125,12,2.125
		c9.125,0,12-2.125,12-2.125v13H38V84.411z"/>
	<path display="inline" class="seat" stroke="#000000" stroke-miterlimit="10" d="M15.625,38c0,0-2.125,3.625-2.125,12
		c0,9.125,2.125,12,2.125,12h-13V38H15.625z"/>
</svg>
