<svg version="1.0" xmlns="http://www.w3.org/2000/svg" xmlns:xlink="http://www.w3.org/1999/xlink" x="0px" y="0px"
	 width="100%" height="100%" viewBox="0 0 100 100" enable-background="new 0 0 100 100" xml:space="preserve">
	<rect x="35.5" y="0.5" class="seat" width="29.332" height="16.167"/>
	<path d="M64.332,1v15.167H36V1H64.332 M65.332,0H35v17.167h30.332V0L65.332,0z"/>

	<rect x="83.5" y="35.5" class="seat" width="16" height="29.167"/>
	<path d="M99,36v28.167H84V36H99 M100,35H83v30.167h17V35L100,35z"/>

	<rect x="35.167" y="83" class="seat" width="29.333" height="16.5"/>
	<path d="M64,83.5V99H35.667V83.5H64 M65,82.5H34.667V100H65V82.5L65,82.5z"/>

	<rect x="0.5" y="35.5" class="seat" width="16.667" height="29.167"/>
	<path d="M16.667,36v28.167H1V36H16.667 M17.667,35H0v30.167h17.667V35L17.667,35z"/>

	<rect x="15.5" y="15.5" class="table" width="69" height="69"/>
	<path d="M84,16v68H16V16H84 M85,15H15v70h70V15L85,15z"/>
</svg>
